xof 0303txt 0032
Material __auto__fence_SY_png {
1.0000;1.0000;1.0000;  1.0000;;
5.0000;
0.1000;0.1000;0.1000;;	
0.2000;0.2000;0.2000;;	
   TextureFilename { "fence-SY.png"; }
}
Mesh mesh_0{
4;
-3.0000;-0.3000;10.3000;,
-3.0000;1.0000;0.0000;,
-3.0000;-0.3000;0.0000;,
-3.0000;1.0000;10.3000;;
4;
3;2,1,0,
3;3,0,1,
3;0,1,2,
3;1,0,3;;
  MeshMaterialList {
1;
4;
0,
0,
0,
0;
{ __auto__fence_SY_png }
  }
  MeshTextureCoords {
4;
4.1000,-0.0000;
0.0000,-1.0000;
0.0000,-0.0000;
4.1000,-1.0000;
  }
  MeshNormals {
2;
1.0000;0.0000;0.0000;,
-1.0000;-0.0000;-0.0000;;
4;
3;0,0,0;
3;0,0,0;
3;1,1,1;
3;1,1,1;;
  }
}
