BveTs Map 2.00

distance-25;
Beacon.Put(4,-1,0);
Structure['P2'].Put(0, 0, 0, 0, 0, 0, 0, 1, 5);
distance-25;
Beacon.Put(3,-1,0);
Structure['P1'].Put(0, 0, 0, 0, 0, 0, 0, 1, 5);
distance-35;
Beacon.Put(3,-1,0);
Structure['P1'].Put(0, 0, 0, 0, 0, 0, 0, 1, 5);
distance-45;
Beacon.Put(3,-1,0);
Structure['P1'].Put(0, 0, 0, 0, 0, 0, 0, 1, 5);
distance-50;
Beacon.Put(3,-1,0);
Structure['P1'].Put(0, 0, 0, 0, 0, 0, 0, 1, 5);
distance-100;
Beacon.Put(3,-1,0);
Structure['P1'].Put(0, 0, 0, 0, 0, 0, 0, 1, 5);
distance-320;
Beacon.Put(3,-1,0);
Structure['P1'].Put(0, 0, 0, 0, 0, 0, 0, 1, 5);
distance+600;