xof 0303txt 0032
template Vector {
 <3d82ab5e-62da-11cf-ab39-0020af71e433>
 FLOAT x;
 FLOAT y;
 FLOAT z;
}

template MeshFace {
 <3d82ab5f-62da-11cf-ab39-0020af71e433>
 DWORD nFaceVertexIndices;
 array DWORD faceVertexIndices[nFaceVertexIndices];
}

template Mesh {
 <3d82ab44-62da-11cf-ab39-0020af71e433>
 DWORD nVertices;
 array Vector vertices[nVertices];
 DWORD nFaces;
 array MeshFace faces[nFaces];
 [...]
}

template ColorRGBA {
 <35ff44e0-6c7c-11cf-8f52-0040333594a3>
 FLOAT red;
 FLOAT green;
 FLOAT blue;
 FLOAT alpha;
}

template ColorRGB {
 <d3e16e81-7835-11cf-8f52-0040333594a3>
 FLOAT red;
 FLOAT green;
 FLOAT blue;
}

template Material {
 <3d82ab4d-62da-11cf-ab39-0020af71e433>
 ColorRGBA faceColor;
 FLOAT power;
 ColorRGB specularColor;
 ColorRGB emissiveColor;
 [...]
}

template MeshMaterialList {
 <f6f23f42-7686-11cf-8f52-0040333594a3>
 DWORD nMaterials;
 DWORD nFaceIndexes;
 array DWORD faceIndexes[nFaceIndexes];
 [Material <3d82ab4d-62da-11cf-ab39-0020af71e433>]
}

template TextureFilename {
 <a42790e1-7810-11cf-8f52-0040333594a3>
 STRING filename;
}

template Coords2d {
 <f6f23f44-7686-11cf-8f52-0040333594a3>
 FLOAT u;
 FLOAT v;
}

template MeshTextureCoords {
 <f6f23f40-7686-11cf-8f52-0040333594a3>
 DWORD nTextureCoords;
 array Coords2d textureCoords[nTextureCoords];
}

template MeshNormals {
 <f6f23f43-7686-11cf-8f52-0040333594a3>
 DWORD nNormals;
 array Vector normals[nNormals];
 DWORD nFaceNormals;
 array MeshFace faceNormals[nFaceNormals];
}


Mesh  {
 62;
 -3.600000;1.500000;0.000000;,
 -3.600000;1.500000;25.299999;,
 -3.600000;0.200000;25.299999;,
 -3.600000;0.200000;0.000000;,
 -3.550000;0.100000;0.000000;,
 -3.550000;0.100000;25.299999;,
 -3.550000;-0.150000;25.299999;,
 -3.550000;-0.150000;0.000000;,
 -3.650000;0.100000;0.000000;,
 -3.650000;0.100000;25.299999;,
 -3.650000;-0.150000;25.299999;,
 -3.650000;-0.150000;0.000000;,
 -3.650000;0.100000;0.000000;,
 -3.550000;0.100000;0.000000;,
 -3.550000;-0.150000;0.000000;,
 -3.650000;-0.150000;0.000000;,
 -3.650000;0.100000;25.299999;,
 -3.550000;0.100000;25.299999;,
 -3.630000;1.500000;0.000000;,
 -3.570000;1.500000;0.000000;,
 -3.570000;0.100000;0.000000;,
 -3.630000;0.100000;0.000000;,
 -3.630000;1.500000;2.500000;,
 -3.570000;1.500000;2.500000;,
 -3.570000;0.100000;2.500000;,
 -3.630000;0.100000;2.500000;,
 -3.630000;1.500000;5.000000;,
 -3.570000;1.500000;5.000000;,
 -3.570000;0.100000;5.000000;,
 -3.630000;0.100000;5.000000;,
 -3.630000;1.500000;7.500000;,
 -3.570000;1.500000;7.500000;,
 -3.570000;0.100000;7.500000;,
 -3.630000;0.100000;7.500000;,
 -3.630000;1.500000;10.000000;,
 -3.570000;1.500000;10.000000;,
 -3.570000;0.100000;10.000000;,
 -3.630000;0.100000;10.000000;,
 -3.630000;1.500000;12.500000;,
 -3.570000;1.500000;12.500000;,
 -3.570000;0.100000;12.500000;,
 -3.630000;0.100000;12.500000;,
 -3.630000;1.500000;15.000000;,
 -3.570000;1.500000;15.000000;,
 -3.570000;0.100000;15.000000;,
 -3.630000;0.100000;15.000000;,
 -3.630000;1.500000;17.500000;,
 -3.570000;1.500000;17.500000;,
 -3.570000;0.100000;17.500000;,
 -3.630000;0.100000;17.500000;,
 -3.630000;1.500000;20.000000;,
 -3.570000;1.500000;20.000000;,
 -3.570000;0.100000;20.000000;,
 -3.630000;0.100000;20.000000;,
 -3.630000;1.500000;22.500000;,
 -3.570000;1.500000;22.500000;,
 -3.570000;0.100000;22.500000;,
 -3.630000;0.100000;22.500000;,
 -3.630000;1.500000;25.000000;,
 -3.570000;1.500000;25.000000;,
 -3.570000;0.100000;25.000000;,
 -3.630000;0.100000;25.000000;;
 34;
 3;0,1,2;,
 3;0,2,3;,
 3;3,2,1;,
 3;3,1,0;,
 3;4,5,6;,
 3;4,6,7;,
 3;11,10,9;,
 3;11,9,8;,
 3;12,13,14;,
 3;12,14,15;,
 3;16,17,13;,
 3;16,13,12;,
 3;18,19,20;,
 3;18,20,21;,
 3;22,23,24;,
 3;22,24,25;,
 3;26,27,28;,
 3;26,28,29;,
 3;30,31,32;,
 3;30,32,33;,
 3;34,35,36;,
 3;34,36,37;,
 3;38,39,40;,
 3;38,40,41;,
 3;42,43,44;,
 3;42,44,45;,
 3;46,47,48;,
 3;46,48,49;,
 3;50,51,52;,
 3;50,52,53;,
 3;54,55,56;,
 3;54,56,57;,
 3;58,59,60;,
 3;58,60,61;;

 MeshMaterialList  {
  4;
  34;
  0,
  0,
  0,
  0,
  1,
  1,
  1,
  1,
  2,
  2,
  2,
  2,
  3,
  3,
  3,
  3,
  3,
  3,
  3,
  3,
  3,
  3,
  3,
  3,
  3,
  3,
  3,
  3,
  3,
  3,
  3,
  3,
  3,
  3;

  Material  {
   1.000000;1.000000;1.000000;1.000000;;
   0.000000;
   0.000000;0.000000;0.000000;;
   0.000000;0.000000;0.000000;;

   TextureFilename  {
    "fence.png";
   }
  }

  Material  {
   1.000000;1.000000;1.000000;1.000000;;
   0.000000;
   0.000000;0.000000;0.000000;;
   0.000000;0.000000;0.000000;;

   TextureFilename  {
    "walls0.png";
   }
  }

  Material  {
   1.000000;1.000000;1.000000;1.000000;;
   0.000000;
   0.000000;0.000000;0.000000;;
   0.000000;0.000000;0.000000;;
  }

  Material  {
   1.000000;1.000000;1.000000;1.000000;;
   0.000000;
   0.000000;0.000000;0.000000;;
   0.000000;0.000000;0.000000;;
  }
 }

 MeshTextureCoords  {
  62;
  0.000000;0.000000;,
  20.000000;0.000000;,
  20.000000;1.000000;,
  0.000000;1.000000;,
  0.000000;0.000000;,
  25.000000;0.000000;,
  25.000000;0.250000;,
  0.000000;0.250000;,
  0.000000;0.000000;,
  25.000000;0.000000;,
  25.000000;0.250000;,
  0.000000;0.250000;,
  0.000000;0.000000;,
  0.000000;0.000000;,
  0.000000;0.000000;,
  0.000000;0.000000;,
  0.000000;0.000000;,
  0.000000;0.000000;,
  0.000000;0.000000;,
  0.000000;0.000000;,
  0.000000;0.000000;,
  0.000000;0.000000;,
  0.000000;0.000000;,
  0.000000;0.000000;,
  0.000000;0.000000;,
  0.000000;0.000000;,
  0.000000;0.000000;,
  0.000000;0.000000;,
  0.000000;0.000000;,
  0.000000;0.000000;,
  0.000000;0.000000;,
  0.000000;0.000000;,
  0.000000;0.000000;,
  0.000000;0.000000;,
  0.000000;0.000000;,
  0.000000;0.000000;,
  0.000000;0.000000;,
  0.000000;0.000000;,
  0.000000;0.000000;,
  0.000000;0.000000;,
  0.000000;0.000000;,
  0.000000;0.000000;,
  0.000000;0.000000;,
  0.000000;0.000000;,
  0.000000;0.000000;,
  0.000000;0.000000;,
  0.000000;0.000000;,
  0.000000;0.000000;,
  0.000000;0.000000;,
  0.000000;0.000000;,
  0.000000;0.000000;,
  0.000000;0.000000;,
  0.000000;0.000000;,
  0.000000;0.000000;,
  0.000000;0.000000;,
  0.000000;0.000000;,
  0.000000;0.000000;,
  0.000000;0.000000;,
  0.000000;0.000000;,
  0.000000;0.000000;,
  0.000000;0.000000;,
  0.000000;0.000000;;
 }

 MeshNormals  {
  34;
  1.000000;0.000000;0.000000;,
  1.000000;0.000000;0.000000;,
  -1.000000;0.000000;0.000000;,
  -1.000000;0.000000;0.000000;,
  1.000000;0.000000;0.000000;,
  1.000000;0.000000;0.000000;,
  -1.000000;0.000000;0.000000;,
  -1.000000;0.000000;0.000000;,
  0.000000;0.000000;-1.000000;,
  0.000000;0.000000;-1.000000;,
  0.000000;1.000000;0.000000;,
  0.000000;1.000000;0.000000;,
  0.000000;0.000000;-1.000000;,
  0.000000;0.000000;-1.000000;,
  0.000000;0.000000;-1.000000;,
  0.000000;0.000000;-1.000000;,
  0.000000;0.000000;-1.000000;,
  0.000000;0.000000;-1.000000;,
  0.000000;0.000000;-1.000000;,
  0.000000;0.000000;-1.000000;,
  0.000000;0.000000;-1.000000;,
  0.000000;0.000000;-1.000000;,
  0.000000;0.000000;-1.000000;,
  0.000000;0.000000;-1.000000;,
  0.000000;0.000000;-1.000000;,
  0.000000;0.000000;-1.000000;,
  0.000000;0.000000;-1.000000;,
  0.000000;0.000000;-1.000000;,
  0.000000;0.000000;-1.000000;,
  0.000000;0.000000;-1.000000;,
  0.000000;0.000000;-1.000000;,
  0.000000;0.000000;-1.000000;,
  0.000000;0.000000;-1.000000;,
  0.000000;0.000000;-1.000000;;
  34;
  3;0,0,0;,
  3;1,1,1;,
  3;2,2,2;,
  3;3,3,3;,
  3;4,4,4;,
  3;5,5,5;,
  3;6,6,6;,
  3;7,7,7;,
  3;8,8,8;,
  3;9,9,9;,
  3;10,10,10;,
  3;11,11,11;,
  3;12,12,12;,
  3;13,13,13;,
  3;14,14,14;,
  3;15,15,15;,
  3;16,16,16;,
  3;17,17,17;,
  3;18,18,18;,
  3;19,19,19;,
  3;20,20,20;,
  3;21,21,21;,
  3;22,22,22;,
  3;23,23,23;,
  3;24,24,24;,
  3;25,25,25;,
  3;26,26,26;,
  3;27,27,27;,
  3;28,28,28;,
  3;29,29,29;,
  3;30,30,30;,
  3;31,31,31;,
  3;32,32,32;,
  3;33,33,33;;
 }
}